{
  "project_info": {
    "project_number": "983895591075",
    "firebase_url": "https://athabasca-12677.firebaseio.com",
    "project_id": "athabasca-12677",
    "storage_bucket": "athabasca-12677.appspot.com"
  },
  "client": [
    {
      "client_info": {
        "mobilesdk_app_id": "1:983895591075:android:6581b1f1de460df6465716",
        "android_client_info": {
          "package_name": "com.unifyed.Athabasca"
        }
      },
      "oauth_client": [
        {
          "client_id": "983895591075-d03l8tbm5hfff9o1b0q5hnjhlghqcb65.apps.googleusercontent.com",
          "client_type": 3
        }
      ],
      "api_key": [
        {
          "current_key": "AIzaSyAI1T1VrQHIOpcja8NwoOafoGDnyglCwgc"
        }
      ],
      "services": {
        "appinvite_service": {
          "other_platform_oauth_client": [
            {
              "client_id": "983895591075-d03l8tbm5hfff9o1b0q5hnjhlghqcb65.apps.googleusercontent.com",
              "client_type": 3
            }
          ]
        }
      }
    }
  ],
  "configuration_version": "1"
}